<svg id="warehouse" xmlns="http://www.w3.org/2000/svg" width="58.083" height="63.675" viewBox="0 0 58.083 63.675">
  <g id="Group_139" data-name="Group 139" transform="translate(13.727 46.853)">
    <g id="Group_138" data-name="Group 138">
      <rect id="Rectangle_34" data-name="Rectangle 34" width="30.63" height="4.681" fill="#222"/>
    </g>
  </g>
  <g id="Group_141" data-name="Group 141" transform="translate(13.727 55.263)">
    <g id="Group_140" data-name="Group 140">
      <rect id="Rectangle_35" data-name="Rectangle 35" width="30.63" height="4.681" fill="#222"/>
    </g>
  </g>
  <g id="Group_143" data-name="Group 143" transform="translate(13.727 38.44)">
    <g id="Group_142" data-name="Group 142">
      <rect id="Rectangle_36" data-name="Rectangle 36" width="30.63" height="4.681" fill="#222"/>
    </g>
  </g>
  <g id="Group_145" data-name="Group 145" transform="translate(0 0)">
    <g id="Group_144" data-name="Group 144">
      <path id="Path_218" data-name="Path 218" d="M57.5,26.427,30.156.456a1.59,1.59,0,0,0-2.229,0L.587,26.427A1.946,1.946,0,0,0,0,27.837V61.81a1.789,1.789,0,0,0,1.7,1.866h8.622v-27.1a1.789,1.789,0,0,1,1.7-1.865H46.058a1.789,1.789,0,0,1,1.7,1.865v27.1h8.622a1.789,1.789,0,0,0,1.7-1.866V27.837A1.946,1.946,0,0,0,57.5,26.427ZM32.243,20.945h-6.4a1.873,1.873,0,0,1,0-3.731h6.4a1.873,1.873,0,0,1,0,3.731Z" transform="translate(0 0)" fill="#222"/>
    </g>
  </g>
</svg>
