<svg xmlns="http://www.w3.org/2000/svg" width="24.442" height="32.589" viewBox="0 0 24.442 32.589">
  <g id="Polygon_1" data-name="Polygon 1" transform="translate(24.442 0) rotate(90)" fill="none">
    <path d="M15.462,1.248a1,1,0,0,1,1.664,0L31.552,22.887a1,1,0,0,1-.832,1.555H1.869a1,1,0,0,1-.832-1.555Z" stroke="none"/>
    <path d="M 16.29435920715332 3.605548858642578 L 3.737022399902344 22.44154167175293 L 28.85169410705566 22.44154167175293 L 16.29435920715332 3.605548858642578 M 16.29436111450195 0.8027744293212891 C 16.61143112182617 0.8027744293212891 16.92850112915039 0.9512062072753906 17.12641143798828 1.248071670532227 L 31.55226135253906 22.8868408203125 C 31.99529075622559 23.5513916015625 31.51890182495117 24.44154167175293 30.72021102905273 24.44154167175293 L 1.868520736694336 24.44154167175293 C 1.069820404052734 24.44154167175293 0.5934314727783203 23.5513916015625 1.036460876464844 22.8868408203125 L 15.46231079101563 1.248071670532227 C 15.66022109985352 0.9512062072753906 15.97729110717773 0.8027744293212891 16.29436111450195 0.8027744293212891 Z" stroke="none" fill="#fff"/>
  </g>
</svg>
